%YAML 1.1
%TAG !u! tag:unity3d.com,2011:
--- !u!114 &11400000
MonoBehaviour:
  m_ObjectHideFlags: 0
  m_CorrespondingSourceObject: {fileID: 0}
  m_PrefabInstance: {fileID: 0}
  m_PrefabAsset: {fileID: 0}
  m_GameObject: {fileID: 0}
  m_Enabled: 1
  m_EditorHideFlags: 0
  m_Script: {fileID: 11500000, guid: f6e4e4fc705376343a3e65b25d94f0e2, type: 3}
  m_Name: Grass
  m_EditorClassIdentifier: 
  m_Sprites:
  - {fileID: -1347532211411968617, guid: bbe6f6f3d8d11e744910f5808f09f8a9, type: 3}
  - {fileID: -7645372005702169758, guid: bbe6f6f3d8d11e744910f5808f09f8a9, type: 3}
  - {fileID: 6891631753638271631, guid: bbe6f6f3d8d11e744910f5808f09f8a9, type: 3}
  - {fileID: 475435623110610922, guid: bbe6f6f3d8d11e744910f5808f09f8a9, type: 3}
  - {fileID: 5299400320964040512, guid: bbe6f6f3d8d11e744910f5808f09f8a9, type: 3}
  - {fileID: -7255497285719700247, guid: bbe6f6f3d8d11e744910f5808f09f8a9, type: 3}
  - {fileID: 6828908663453297030, guid: bbe6f6f3d8d11e744910f5808f09f8a9, type: 3}
  - {fileID: 6694032873506494867, guid: bbe6f6f3d8d11e744910f5808f09f8a9, type: 3}
  - {fileID: 2289616372777055746, guid: bbe6f6f3d8d11e744910f5808f09f8a9, type: 3}
  - {fileID: 7471297114442723461, guid: bbe6f6f3d8d11e744910f5808f09f8a9, type: 3}
  - {fileID: 8577017789959637929, guid: bbe6f6f3d8d11e744910f5808f09f8a9, type: 3}
  - {fileID: -6796477259373386654, guid: bbe6f6f3d8d11e744910f5808f09f8a9, type: 3}
  - {fileID: -6259141551469331208, guid: bbe6f6f3d8d11e744910f5808f09f8a9, type: 3}
  - {fileID: 7867572149665653903, guid: bbe6f6f3d8d11e744910f5808f09f8a9, type: 3}
  - {fileID: -5165184021104784756, guid: 37b3cd97ae4acd3428754ea06a6568ea, type: 3}
