%YAML 1.1
%TAG !u! tag:unity3d.com,2011:
--- !u!114 &11400000
MonoBehaviour:
  m_ObjectHideFlags: 0
  m_CorrespondingSourceObject: {fileID: 0}
  m_PrefabInstance: {fileID: 0}
  m_PrefabAsset: {fileID: 0}
  m_GameObject: {fileID: 0}
  m_Enabled: 1
  m_EditorHideFlags: 0
  m_Script: {fileID: 11500000, guid: f6e4e4fc705376343a3e65b25d94f0e2, type: 3}
  m_Name: Wall
  m_EditorClassIdentifier: 
  m_Sprites:
  - {fileID: 5057704644399378504, guid: 37b3cd97ae4acd3428754ea06a6568ea, type: 3}
  - {fileID: -6212426805233050221, guid: 37b3cd97ae4acd3428754ea06a6568ea, type: 3}
  - {fileID: -985769524094194327, guid: 37b3cd97ae4acd3428754ea06a6568ea, type: 3}
  - {fileID: 1418520651050049105, guid: 37b3cd97ae4acd3428754ea06a6568ea, type: 3}
  - {fileID: 6442850628358652382, guid: 37b3cd97ae4acd3428754ea06a6568ea, type: 3}
  - {fileID: -1229632888680544256, guid: 37b3cd97ae4acd3428754ea06a6568ea, type: 3}
  - {fileID: -4860526782737490474, guid: 37b3cd97ae4acd3428754ea06a6568ea, type: 3}
  - {fileID: -1204980181995760922, guid: 37b3cd97ae4acd3428754ea06a6568ea, type: 3}
  - {fileID: 3463165442898614799, guid: 37b3cd97ae4acd3428754ea06a6568ea, type: 3}
  - {fileID: 2395761776087617806, guid: 37b3cd97ae4acd3428754ea06a6568ea, type: 3}
  - {fileID: -3552453872560797933, guid: 37b3cd97ae4acd3428754ea06a6568ea, type: 3}
  - {fileID: 7589349263283809006, guid: 37b3cd97ae4acd3428754ea06a6568ea, type: 3}
  - {fileID: 112572620731247390, guid: 37b3cd97ae4acd3428754ea06a6568ea, type: 3}
  - {fileID: 3847269409773156432, guid: 37b3cd97ae4acd3428754ea06a6568ea, type: 3}
  - {fileID: -5165184021104784756, guid: 37b3cd97ae4acd3428754ea06a6568ea, type: 3}
