%YAML 1.1
%TAG !u! tag:unity3d.com,2011:
--- !u!1 &4169860164885504427
GameObject:
  m_ObjectHideFlags: 0
  m_CorrespondingSourceObject: {fileID: 0}
  m_PrefabInstance: {fileID: 0}
  m_PrefabAsset: {fileID: 0}
  serializedVersion: 6
  m_Component:
  - component: {fileID: 9083101042173992463}
  - component: {fileID: 5681867675426503877}
  - component: {fileID: 1535423773756321225}
  m_Layer: 31
  m_Name: Layer1
  m_TagString: Untagged
  m_Icon: {fileID: 0}
  m_NavMeshLayer: 0
  m_StaticEditorFlags: 0
  m_IsActive: 1
--- !u!4 &9083101042173992463
Transform:
  m_ObjectHideFlags: 0
  m_CorrespondingSourceObject: {fileID: 0}
  m_PrefabInstance: {fileID: 0}
  m_PrefabAsset: {fileID: 0}
  m_GameObject: {fileID: 4169860164885504427}
  m_LocalRotation: {x: -0, y: -0, z: -0, w: 1}
  m_LocalPosition: {x: 0, y: 0, z: 0}
  m_LocalScale: {x: 1, y: 1, z: 1}
  m_Children: []
  m_Father: {fileID: 4419456803893104196}
  m_RootOrder: 0
  m_LocalEulerAnglesHint: {x: 0, y: 0, z: 0}
--- !u!1839735485 &5681867675426503877
Tilemap:
  m_ObjectHideFlags: 0
  m_CorrespondingSourceObject: {fileID: 0}
  m_PrefabInstance: {fileID: 0}
  m_PrefabAsset: {fileID: 0}
  m_GameObject: {fileID: 4169860164885504427}
  m_Enabled: 1
  m_Tiles:
  - first: {x: 0, y: -36, z: 0}
    second:
      m_TileIndex: 87
      m_TileSpriteIndex: 95
      m_TileMatrixIndex: 0
      m_TileColorIndex: 0
      m_ObjectToInstantiate: {fileID: 0}
      m_TileFlags: 3
      m_ColliderType: 1
  - first: {x: 1, y: -36, z: 0}
    second:
      m_TileIndex: 87
      m_TileSpriteIndex: 94
      m_TileMatrixIndex: 2
      m_TileColorIndex: 0
      m_ObjectToInstantiate: {fileID: 0}
      m_TileFlags: 3
      m_ColliderType: 1
  - first: {x: 2, y: -36, z: 0}
    second:
      m_TileIndex: 87
      m_TileSpriteIndex: 95
      m_TileMatrixIndex: 2
      m_TileColorIndex: 0
      m_ObjectToInstantiate: {fileID: 0}
      m_TileFlags: 3
      m_ColliderType: 1
  - first: {x: 0, y: -35, z: 0}
    second:
      m_TileIndex: 87
      m_TileSpriteIndex: 95
      m_TileMatrixIndex: 3
      m_TileColorIndex: 0
      m_ObjectToInstantiate: {fileID: 0}
      m_TileFlags: 3
      m_ColliderType: 1
  - first: {x: 1, y: -35, z: 0}
    second:
      m_TileIndex: 87
      m_TileSpriteIndex: 106
      m_TileMatrixIndex: 0
      m_TileColorIndex: 0
      m_ObjectToInstantiate: {fileID: 0}
      m_TileFlags: 3
      m_ColliderType: 1
  - first: {x: 2, y: -35, z: 0}
    second:
      m_TileIndex: 87
      m_TileSpriteIndex: 94
      m_TileMatrixIndex: 1
      m_TileColorIndex: 0
      m_ObjectToInstantiate: {fileID: 0}
      m_TileFlags: 3
      m_ColliderType: 1
  - first: {x: 0, y: -34, z: 0}
    second:
      m_TileIndex: 89
      m_TileSpriteIndex: 105
      m_TileMatrixIndex: 0
      m_TileColorIndex: 0
      m_ObjectToInstantiate: {fileID: 0}
      m_TileFlags: 1
      m_ColliderType: 1
  - first: {x: 1, y: -34, z: 0}
    second:
      m_TileIndex: 87
      m_TileSpriteIndex: 95
      m_TileMatrixIndex: 3
      m_TileColorIndex: 0
      m_ObjectToInstantiate: {fileID: 0}
      m_TileFlags: 3
      m_ColliderType: 1
  - first: {x: 2, y: -34, z: 0}
    second:
      m_TileIndex: 87
      m_TileSpriteIndex: 95
      m_TileMatrixIndex: 1
      m_TileColorIndex: 0
      m_ObjectToInstantiate: {fileID: 0}
      m_TileFlags: 3
      m_ColliderType: 1
  - first: {x: 0, y: -33, z: 0}
    second:
      m_TileIndex: 91
      m_TileSpriteIndex: 102
      m_TileMatrixIndex: 0
      m_TileColorIndex: 0
      m_ObjectToInstantiate: {fileID: 0}
      m_TileFlags: 3
      m_ColliderType: 1
  - first: {x: 1, y: -33, z: 0}
    second:
      m_TileIndex: 91
      m_TileSpriteIndex: 100
      m_TileMatrixIndex: 2
      m_TileColorIndex: 0
      m_ObjectToInstantiate: {fileID: 0}
      m_TileFlags: 3
      m_ColliderType: 1
  - first: {x: 2, y: -33, z: 0}
    second:
      m_TileIndex: 91
      m_TileSpriteIndex: 102
      m_TileMatrixIndex: 2
      m_TileColorIndex: 0
      m_ObjectToInstantiate: {fileID: 0}
      m_TileFlags: 3
      m_ColliderType: 1
  - first: {x: 0, y: -32, z: 0}
    second:
      m_TileIndex: 91
      m_TileSpriteIndex: 102
      m_TileMatrixIndex: 3
      m_TileColorIndex: 0
      m_ObjectToInstantiate: {fileID: 0}
      m_TileFlags: 3
      m_ColliderType: 1
  - first: {x: 1, y: -32, z: 0}
    second:
      m_TileIndex: 91
      m_TileSpriteIndex: 104
      m_TileMatrixIndex: 3
      m_TileColorIndex: 0
      m_ObjectToInstantiate: {fileID: 0}
      m_TileFlags: 3
      m_ColliderType: 1
  - first: {x: 2, y: -32, z: 0}
    second:
      m_TileIndex: 91
      m_TileSpriteIndex: 102
      m_TileMatrixIndex: 1
      m_TileColorIndex: 0
      m_ObjectToInstantiate: {fileID: 0}
      m_TileFlags: 3
      m_ColliderType: 1
  - first: {x: 0, y: -31, z: 0}
    second:
      m_TileIndex: 90
      m_TileSpriteIndex: 107
      m_TileMatrixIndex: 0
      m_TileColorIndex: 0
      m_ObjectToInstantiate: {fileID: 0}
      m_TileFlags: 1
      m_ColliderType: 1
  - first: {x: 1, y: -31, z: 0}
    second:
      m_TileIndex: 91
      m_TileSpriteIndex: 24
      m_TileMatrixIndex: 1
      m_TileColorIndex: 0
      m_ObjectToInstantiate: {fileID: 0}
      m_TileFlags: 3
      m_ColliderType: 1
  - first: {x: 2, y: -31, z: 0}
    second:
      m_TileIndex: 91
      m_TileSpriteIndex: 4294967295
      m_TileMatrixIndex: 1
      m_TileColorIndex: 0
      m_ObjectToInstantiate: {fileID: 0}
      m_TileFlags: 0
      m_ColliderType: 0
  - first: {x: 0, y: -30, z: 0}
    second:
      m_TileIndex: 85
      m_TileSpriteIndex: 86
      m_TileMatrixIndex: 0
      m_TileColorIndex: 0
      m_ObjectToInstantiate: {fileID: 0}
      m_TileFlags: 3
      m_ColliderType: 1
  - first: {x: 1, y: -30, z: 0}
    second:
      m_TileIndex: 85
      m_TileSpriteIndex: 82
      m_TileMatrixIndex: 2
      m_TileColorIndex: 0
      m_ObjectToInstantiate: {fileID: 0}
      m_TileFlags: 3
      m_ColliderType: 1
  - first: {x: 2, y: -30, z: 0}
    second:
      m_TileIndex: 85
      m_TileSpriteIndex: 86
      m_TileMatrixIndex: 2
      m_TileColorIndex: 0
      m_ObjectToInstantiate: {fileID: 0}
      m_TileFlags: 3
      m_ColliderType: 1
  - first: {x: 3, y: -30, z: 0}
    second:
      m_TileIndex: 86
      m_TileSpriteIndex: 25
      m_TileMatrixIndex: 0
      m_TileColorIndex: 0
      m_ObjectToInstantiate: {fileID: 0}
      m_TileFlags: 3
      m_ColliderType: 1
  - first: {x: 4, y: -30, z: 0}
    second:
      m_TileIndex: 86
      m_TileSpriteIndex: 27
      m_TileMatrixIndex: 2
      m_TileColorIndex: 0
      m_ObjectToInstantiate: {fileID: 0}
      m_TileFlags: 3
      m_ColliderType: 1
  - first: {x: 5, y: -30, z: 0}
    second:
      m_TileIndex: 86
      m_TileSpriteIndex: 25
      m_TileMatrixIndex: 2
      m_TileColorIndex: 0
      m_ObjectToInstantiate: {fileID: 0}
      m_TileFlags: 3
      m_ColliderType: 1
  - first: {x: 0, y: -29, z: 0}
    second:
      m_TileIndex: 85
      m_TileSpriteIndex: 86
      m_TileMatrixIndex: 3
      m_TileColorIndex: 0
      m_ObjectToInstantiate: {fileID: 0}
      m_TileFlags: 3
      m_ColliderType: 1
  - first: {x: 1, y: -29, z: 0}
    second:
      m_TileIndex: 85
      m_TileSpriteIndex: 103
      m_TileMatrixIndex: 0
      m_TileColorIndex: 0
      m_ObjectToInstantiate: {fileID: 0}
      m_TileFlags: 3
      m_ColliderType: 1
  - first: {x: 2, y: -29, z: 0}
    second:
      m_TileIndex: 85
      m_TileSpriteIndex: 82
      m_TileMatrixIndex: 1
      m_TileColorIndex: 0
      m_ObjectToInstantiate: {fileID: 0}
      m_TileFlags: 3
      m_ColliderType: 1
  - first: {x: 3, y: -29, z: 0}
    second:
      m_TileIndex: 86
      m_TileSpriteIndex: 27
      m_TileMatrixIndex: 0
      m_TileColorIndex: 0
      m_ObjectToInstantiate: {fileID: 0}
      m_TileFlags: 3
      m_ColliderType: 1
  - first: {x: 4, y: -29, z: 0}
    second:
      m_TileIndex: 86
      m_TileSpriteIndex: 26
      m_TileMatrixIndex: 3
      m_TileColorIndex: 0
      m_ObjectToInstantiate: {fileID: 0}
      m_TileFlags: 3
      m_ColliderType: 1
  - first: {x: 5, y: -29, z: 0}
    second:
      m_TileIndex: 86
      m_TileSpriteIndex: 25
      m_TileMatrixIndex: 1
      m_TileColorIndex: 0
      m_ObjectToInstantiate: {fileID: 0}
      m_TileFlags: 3
      m_ColliderType: 1
  - first: {x: 0, y: -28, z: 0}
    second:
      m_TileIndex: 88
      m_TileSpriteIndex: 101
      m_TileMatrixIndex: 0
      m_TileColorIndex: 0
      m_ObjectToInstantiate: {fileID: 0}
      m_TileFlags: 1
      m_ColliderType: 1
  - first: {x: 1, y: -28, z: 0}
    second:
      m_TileIndex: 85
      m_TileSpriteIndex: 86
      m_TileMatrixIndex: 3
      m_TileColorIndex: 0
      m_ObjectToInstantiate: {fileID: 0}
      m_TileFlags: 3
      m_ColliderType: 1
  - first: {x: 2, y: -28, z: 0}
    second:
      m_TileIndex: 85
      m_TileSpriteIndex: 86
      m_TileMatrixIndex: 1
      m_TileColorIndex: 0
      m_ObjectToInstantiate: {fileID: 0}
      m_TileFlags: 3
      m_ColliderType: 1
  - first: {x: 3, y: -28, z: 0}
    second:
      m_TileIndex: 86
      m_TileSpriteIndex: 25
      m_TileMatrixIndex: 3
      m_TileColorIndex: 0
      m_ObjectToInstantiate: {fileID: 0}
      m_TileFlags: 3
      m_ColliderType: 1
  - first: {x: 4, y: -28, z: 0}
    second:
      m_TileIndex: 86
      m_TileSpriteIndex: 25
      m_TileMatrixIndex: 1
      m_TileColorIndex: 0
      m_ObjectToInstantiate: {fileID: 0}
      m_TileFlags: 3
      m_ColliderType: 1
  - first: {x: -2, y: -23, z: 0}
    second:
      m_TileIndex: 61
      m_TileSpriteIndex: 99
      m_TileMatrixIndex: 0
      m_TileColorIndex: 0
      m_ObjectToInstantiate: {fileID: 0}
      m_TileFlags: 1
      m_ColliderType: 1
  - first: {x: -1, y: -23, z: 0}
    second:
      m_TileIndex: 62
      m_TileSpriteIndex: 98
      m_TileMatrixIndex: 0
      m_TileColorIndex: 0
      m_ObjectToInstantiate: {fileID: 0}
      m_TileFlags: 1
      m_ColliderType: 1
  - first: {x: 0, y: -23, z: 0}
    second:
      m_TileIndex: 63
      m_TileSpriteIndex: 97
      m_TileMatrixIndex: 0
      m_TileColorIndex: 0
      m_ObjectToInstantiate: {fileID: 0}
      m_TileFlags: 1
      m_ColliderType: 1
  - first: {x: 1, y: -23, z: 0}
    second:
      m_TileIndex: 64
      m_TileSpriteIndex: 96
      m_TileMatrixIndex: 0
      m_TileColorIndex: 0
      m_ObjectToInstantiate: {fileID: 0}
      m_TileFlags: 1
      m_ColliderType: 1
  - first: {x: 2, y: -23, z: 0}
    second:
      m_TileIndex: 65
      m_TileSpriteIndex: 93
      m_TileMatrixIndex: 0
      m_TileColorIndex: 0
      m_ObjectToInstantiate: {fileID: 0}
      m_TileFlags: 1
      m_ColliderType: 1
  - first: {x: 3, y: -23, z: 0}
    second:
      m_TileIndex: 66
      m_TileSpriteIndex: 92
      m_TileMatrixIndex: 0
      m_TileColorIndex: 0
      m_ObjectToInstantiate: {fileID: 0}
      m_TileFlags: 1
      m_ColliderType: 1
  - first: {x: 4, y: -23, z: 0}
    second:
      m_TileIndex: 67
      m_TileSpriteIndex: 90
      m_TileMatrixIndex: 0
      m_TileColorIndex: 0
      m_ObjectToInstantiate: {fileID: 0}
      m_TileFlags: 1
      m_ColliderType: 1
  - first: {x: 5, y: -23, z: 0}
    second:
      m_TileIndex: 68
      m_TileSpriteIndex: 89
      m_TileMatrixIndex: 0
      m_TileColorIndex: 0
      m_ObjectToInstantiate: {fileID: 0}
      m_TileFlags: 1
      m_ColliderType: 1
  - first: {x: 0, y: -22, z: 0}
    second:
      m_TileIndex: 57
      m_TileSpriteIndex: 88
      m_TileMatrixIndex: 0
      m_TileColorIndex: 0
      m_ObjectToInstantiate: {fileID: 0}
      m_TileFlags: 1
      m_ColliderType: 1
  - first: {x: 1, y: -22, z: 0}
    second:
      m_TileIndex: 58
      m_TileSpriteIndex: 87
      m_TileMatrixIndex: 0
      m_TileColorIndex: 0
      m_ObjectToInstantiate: {fileID: 0}
      m_TileFlags: 1
      m_ColliderType: 1
  - first: {x: 2, y: -22, z: 0}
    second:
      m_TileIndex: 59
      m_TileSpriteIndex: 85
      m_TileMatrixIndex: 0
      m_TileColorIndex: 0
      m_ObjectToInstantiate: {fileID: 0}
      m_TileFlags: 1
      m_ColliderType: 1
  - first: {x: 3, y: -22, z: 0}
    second:
      m_TileIndex: 60
      m_TileSpriteIndex: 84
      m_TileMatrixIndex: 0
      m_TileColorIndex: 0
      m_ObjectToInstantiate: {fileID: 0}
      m_TileFlags: 1
      m_ColliderType: 1
  - first: {x: 8, y: -22, z: 0}
    second:
      m_TileIndex: 86
      m_TileSpriteIndex: 91
      m_TileMatrixIndex: 0
      m_TileColorIndex: 0
      m_ObjectToInstantiate: {fileID: 0}
      m_TileFlags: 3
      m_ColliderType: 1
  - first: {x: -2, y: -21, z: 0}
    second:
      m_TileIndex: 49
      m_TileSpriteIndex: 83
      m_TileMatrixIndex: 0
      m_TileColorIndex: 0
      m_ObjectToInstantiate: {fileID: 0}
      m_TileFlags: 1
      m_ColliderType: 1
  - first: {x: -1, y: -21, z: 0}
    second:
      m_TileIndex: 50
      m_TileSpriteIndex: 81
      m_TileMatrixIndex: 0
      m_TileColorIndex: 0
      m_ObjectToInstantiate: {fileID: 0}
      m_TileFlags: 1
      m_ColliderType: 1
  - first: {x: 0, y: -21, z: 0}
    second:
      m_TileIndex: 51
      m_TileSpriteIndex: 80
      m_TileMatrixIndex: 0
      m_TileColorIndex: 0
      m_ObjectToInstantiate: {fileID: 0}
      m_TileFlags: 1
      m_ColliderType: 1
  - first: {x: 1, y: -21, z: 0}
    second:
      m_TileIndex: 52
      m_TileSpriteIndex: 79
      m_TileMatrixIndex: 0
      m_TileColorIndex: 0
      m_ObjectToInstantiate: {fileID: 0}
      m_TileFlags: 1
      m_ColliderType: 1
  - first: {x: 2, y: -21, z: 0}
    second:
      m_TileIndex: 53
      m_TileSpriteIndex: 78
      m_TileMatrixIndex: 0
      m_TileColorIndex: 0
      m_ObjectToInstantiate: {fileID: 0}
      m_TileFlags: 1
      m_ColliderType: 1
  - first: {x: 3, y: -21, z: 0}
    second:
      m_TileIndex: 54
      m_TileSpriteIndex: 77
      m_TileMatrixIndex: 0
      m_TileColorIndex: 0
      m_ObjectToInstantiate: {fileID: 0}
      m_TileFlags: 1
      m_ColliderType: 1
  - first: {x: 4, y: -21, z: 0}
    second:
      m_TileIndex: 55
      m_TileSpriteIndex: 76
      m_TileMatrixIndex: 0
      m_TileColorIndex: 0
      m_ObjectToInstantiate: {fileID: 0}
      m_TileFlags: 1
      m_ColliderType: 1
  - first: {x: 5, y: -21, z: 0}
    second:
      m_TileIndex: 56
      m_TileSpriteIndex: 75
      m_TileMatrixIndex: 0
      m_TileColorIndex: 0
      m_ObjectToInstantiate: {fileID: 0}
      m_TileFlags: 1
      m_ColliderType: 1
  - first: {x: -2, y: -20, z: 0}
    second:
      m_TileIndex: 12
      m_TileSpriteIndex: 74
      m_TileMatrixIndex: 0
      m_TileColorIndex: 0
      m_ObjectToInstantiate: {fileID: 0}
      m_TileFlags: 1
      m_ColliderType: 1
  - first: {x: -1, y: -20, z: 0}
    second:
      m_TileIndex: 11
      m_TileSpriteIndex: 73
      m_TileMatrixIndex: 0
      m_TileColorIndex: 0
      m_ObjectToInstantiate: {fileID: 0}
      m_TileFlags: 1
      m_ColliderType: 1
  - first: {x: 0, y: -20, z: 0}
    second:
      m_TileIndex: 43
      m_TileSpriteIndex: 72
      m_TileMatrixIndex: 0
      m_TileColorIndex: 0
      m_ObjectToInstantiate: {fileID: 0}
      m_TileFlags: 1
      m_ColliderType: 1
  - first: {x: 1, y: -20, z: 0}
    second:
      m_TileIndex: 44
      m_TileSpriteIndex: 71
      m_TileMatrixIndex: 0
      m_TileColorIndex: 0
      m_ObjectToInstantiate: {fileID: 0}
      m_TileFlags: 1
      m_ColliderType: 1
  - first: {x: 2, y: -20, z: 0}
    second:
      m_TileIndex: 45
      m_TileSpriteIndex: 70
      m_TileMatrixIndex: 0
      m_TileColorIndex: 0
      m_ObjectToInstantiate: {fileID: 0}
      m_TileFlags: 1
      m_ColliderType: 1
  - first: {x: 3, y: -20, z: 0}
    second:
      m_TileIndex: 46
      m_TileSpriteIndex: 69
      m_TileMatrixIndex: 0
      m_TileColorIndex: 0
      m_ObjectToInstantiate: {fileID: 0}
      m_TileFlags: 1
      m_ColliderType: 1
  - first: {x: 4, y: -20, z: 0}
    second:
      m_TileIndex: 47
      m_TileSpriteIndex: 68
      m_TileMatrixIndex: 0
      m_TileColorIndex: 0
      m_ObjectToInstantiate: {fileID: 0}
      m_TileFlags: 1
      m_ColliderType: 1
  - first: {x: 5, y: -20, z: 0}
    second:
      m_TileIndex: 48
      m_TileSpriteIndex: 67
      m_TileMatrixIndex: 0
      m_TileColorIndex: 0
      m_ObjectToInstantiate: {fileID: 0}
      m_TileFlags: 1
      m_ColliderType: 1
  - first: {x: -2, y: -19, z: 0}
    second:
      m_TileIndex: 20
      m_TileSpriteIndex: 66
      m_TileMatrixIndex: 0
      m_TileColorIndex: 0
      m_ObjectToInstantiate: {fileID: 0}
      m_TileFlags: 1
      m_ColliderType: 1
  - first: {x: -1, y: -19, z: 0}
    second:
      m_TileIndex: 19
      m_TileSpriteIndex: 65
      m_TileMatrixIndex: 0
      m_TileColorIndex: 0
      m_ObjectToInstantiate: {fileID: 0}
      m_TileFlags: 1
      m_ColliderType: 1
  - first: {x: 0, y: -19, z: 0}
    second:
      m_TileIndex: 18
      m_TileSpriteIndex: 64
      m_TileMatrixIndex: 0
      m_TileColorIndex: 0
      m_ObjectToInstantiate: {fileID: 0}
      m_TileFlags: 1
      m_ColliderType: 1
  - first: {x: 1, y: -19, z: 0}
    second:
      m_TileIndex: 17
      m_TileSpriteIndex: 63
      m_TileMatrixIndex: 0
      m_TileColorIndex: 0
      m_ObjectToInstantiate: {fileID: 0}
      m_TileFlags: 1
      m_ColliderType: 1
  - first: {x: 2, y: -19, z: 0}
    second:
      m_TileIndex: 16
      m_TileSpriteIndex: 62
      m_TileMatrixIndex: 0
      m_TileColorIndex: 0
      m_ObjectToInstantiate: {fileID: 0}
      m_TileFlags: 1
      m_ColliderType: 1
  - first: {x: 3, y: -19, z: 0}
    second:
      m_TileIndex: 15
      m_TileSpriteIndex: 61
      m_TileMatrixIndex: 0
      m_TileColorIndex: 0
      m_ObjectToInstantiate: {fileID: 0}
      m_TileFlags: 1
      m_ColliderType: 1
  - first: {x: 4, y: -19, z: 0}
    second:
      m_TileIndex: 14
      m_TileSpriteIndex: 60
      m_TileMatrixIndex: 0
      m_TileColorIndex: 0
      m_ObjectToInstantiate: {fileID: 0}
      m_TileFlags: 1
      m_ColliderType: 1
  - first: {x: 5, y: -19, z: 0}
    second:
      m_TileIndex: 13
      m_TileSpriteIndex: 59
      m_TileMatrixIndex: 0
      m_TileColorIndex: 0
      m_ObjectToInstantiate: {fileID: 0}
      m_TileFlags: 1
      m_ColliderType: 1
  - first: {x: -2, y: -18, z: 0}
    second:
      m_TileIndex: 28
      m_TileSpriteIndex: 58
      m_TileMatrixIndex: 0
      m_TileColorIndex: 0
      m_ObjectToInstantiate: {fileID: 0}
      m_TileFlags: 1
      m_ColliderType: 1
  - first: {x: -1, y: -18, z: 0}
    second:
      m_TileIndex: 27
      m_TileSpriteIndex: 57
      m_TileMatrixIndex: 0
      m_TileColorIndex: 0
      m_ObjectToInstantiate: {fileID: 0}
      m_TileFlags: 1
      m_ColliderType: 1
  - first: {x: 0, y: -18, z: 0}
    second:
      m_TileIndex: 26
      m_TileSpriteIndex: 56
      m_TileMatrixIndex: 0
      m_TileColorIndex: 0
      m_ObjectToInstantiate: {fileID: 0}
      m_TileFlags: 1
      m_ColliderType: 1
  - first: {x: 1, y: -18, z: 0}
    second:
      m_TileIndex: 25
      m_TileSpriteIndex: 55
      m_TileMatrixIndex: 0
      m_TileColorIndex: 0
      m_ObjectToInstantiate: {fileID: 0}
      m_TileFlags: 1
      m_ColliderType: 1
  - first: {x: 2, y: -18, z: 0}
    second:
      m_TileIndex: 24
      m_TileSpriteIndex: 54
      m_TileMatrixIndex: 0
      m_TileColorIndex: 0
      m_ObjectToInstantiate: {fileID: 0}
      m_TileFlags: 1
      m_ColliderType: 1
  - first: {x: 3, y: -18, z: 0}
    second:
      m_TileIndex: 23
      m_TileSpriteIndex: 53
      m_TileMatrixIndex: 0
      m_TileColorIndex: 0
      m_ObjectToInstantiate: {fileID: 0}
      m_TileFlags: 1
      m_ColliderType: 1
  - first: {x: 4, y: -18, z: 0}
    second:
      m_TileIndex: 22
      m_TileSpriteIndex: 52
      m_TileMatrixIndex: 0
      m_TileColorIndex: 0
      m_ObjectToInstantiate: {fileID: 0}
      m_TileFlags: 1
      m_ColliderType: 1
  - first: {x: 5, y: -18, z: 0}
    second:
      m_TileIndex: 21
      m_TileSpriteIndex: 51
      m_TileMatrixIndex: 0
      m_TileColorIndex: 0
      m_ObjectToInstantiate: {fileID: 0}
      m_TileFlags: 1
      m_ColliderType: 1
  - first: {x: -1, y: -17, z: 0}
    second:
      m_TileIndex: 32
      m_TileSpriteIndex: 50
      m_TileMatrixIndex: 0
      m_TileColorIndex: 0
      m_ObjectToInstantiate: {fileID: 0}
      m_TileFlags: 1
      m_ColliderType: 1
  - first: {x: 1, y: -17, z: 0}
    second:
      m_TileIndex: 31
      m_TileSpriteIndex: 49
      m_TileMatrixIndex: 0
      m_TileColorIndex: 0
      m_ObjectToInstantiate: {fileID: 0}
      m_TileFlags: 1
      m_ColliderType: 1
  - first: {x: 3, y: -17, z: 0}
    second:
      m_TileIndex: 30
      m_TileSpriteIndex: 48
      m_TileMatrixIndex: 0
      m_TileColorIndex: 0
      m_ObjectToInstantiate: {fileID: 0}
      m_TileFlags: 1
      m_ColliderType: 1
  - first: {x: -3, y: -16, z: 0}
    second:
      m_TileIndex: 29
      m_TileSpriteIndex: 10
      m_TileMatrixIndex: 0
      m_TileColorIndex: 0
      m_ObjectToInstantiate: {fileID: 0}
      m_TileFlags: 1
      m_ColliderType: 1
  - first: {x: -1, y: -16, z: 0}
    second:
      m_TileIndex: 37
      m_TileSpriteIndex: 47
      m_TileMatrixIndex: 0
      m_TileColorIndex: 0
      m_ObjectToInstantiate: {fileID: 0}
      m_TileFlags: 1
      m_ColliderType: 1
  - first: {x: 0, y: -16, z: 0}
    second:
      m_TileIndex: 36
      m_TileSpriteIndex: 17
      m_TileMatrixIndex: 0
      m_TileColorIndex: 0
      m_ObjectToInstantiate: {fileID: 0}
      m_TileFlags: 1
      m_ColliderType: 1
  - first: {x: 1, y: -16, z: 0}
    second:
      m_TileIndex: 29
      m_TileSpriteIndex: 10
      m_TileMatrixIndex: 0
      m_TileColorIndex: 0
      m_ObjectToInstantiate: {fileID: 0}
      m_TileFlags: 1
      m_ColliderType: 1
  - first: {x: 2, y: -16, z: 0}
    second:
      m_TileIndex: 35
      m_TileSpriteIndex: 46
      m_TileMatrixIndex: 0
      m_TileColorIndex: 0
      m_ObjectToInstantiate: {fileID: 0}
      m_TileFlags: 1
      m_ColliderType: 1
  - first: {x: 3, y: -16, z: 0}
    second:
      m_TileIndex: 34
      m_TileSpriteIndex: 45
      m_TileMatrixIndex: 0
      m_TileColorIndex: 0
      m_ObjectToInstantiate: {fileID: 0}
      m_TileFlags: 1
      m_ColliderType: 1
  - first: {x: 4, y: -16, z: 0}
    second:
      m_TileIndex: 33
      m_TileSpriteIndex: 44
      m_TileMatrixIndex: 0
      m_TileColorIndex: 0
      m_ObjectToInstantiate: {fileID: 0}
      m_TileFlags: 1
      m_ColliderType: 1
  - first: {x: -1, y: -15, z: 0}
    second:
      m_TileIndex: 42
      m_TileSpriteIndex: 43
      m_TileMatrixIndex: 0
      m_TileColorIndex: 0
      m_ObjectToInstantiate: {fileID: 0}
      m_TileFlags: 1
      m_ColliderType: 1
  - first: {x: 0, y: -15, z: 0}
    second:
      m_TileIndex: 41
      m_TileSpriteIndex: 42
      m_TileMatrixIndex: 0
      m_TileColorIndex: 0
      m_ObjectToInstantiate: {fileID: 0}
      m_TileFlags: 1
      m_ColliderType: 1
  - first: {x: 1, y: -15, z: 0}
    second:
      m_TileIndex: 40
      m_TileSpriteIndex: 41
      m_TileMatrixIndex: 0
      m_TileColorIndex: 0
      m_ObjectToInstantiate: {fileID: 0}
      m_TileFlags: 1
      m_ColliderType: 1
  - first: {x: 2, y: -15, z: 0}
    second:
      m_TileIndex: 39
      m_TileSpriteIndex: 40
      m_TileMatrixIndex: 0
      m_TileColorIndex: 0
      m_ObjectToInstantiate: {fileID: 0}
      m_TileFlags: 1
      m_ColliderType: 1
  - first: {x: 3, y: -15, z: 0}
    second:
      m_TileIndex: 38
      m_TileSpriteIndex: 39
      m_TileMatrixIndex: 0
      m_TileColorIndex: 0
      m_ObjectToInstantiate: {fileID: 0}
      m_TileFlags: 1
      m_ColliderType: 1
  - first: {x: -3, y: -14, z: 0}
    second:
      m_TileIndex: 36
      m_TileSpriteIndex: 17
      m_TileMatrixIndex: 0
      m_TileColorIndex: 0
      m_ObjectToInstantiate: {fileID: 0}
      m_TileFlags: 1
      m_ColliderType: 1
  - first: {x: -1, y: -14, z: 0}
    second:
      m_TileIndex: 10
      m_TileSpriteIndex: 38
      m_TileMatrixIndex: 0
      m_TileColorIndex: 0
      m_ObjectToInstantiate: {fileID: 0}
      m_TileFlags: 1
      m_ColliderType: 1
  - first: {x: 1, y: -14, z: 0}
    second:
      m_TileIndex: 5
      m_TileSpriteIndex: 37
      m_TileMatrixIndex: 0
      m_TileColorIndex: 0
      m_ObjectToInstantiate: {fileID: 0}
      m_TileFlags: 1
      m_ColliderType: 1
  - first: {x: 3, y: -14, z: 0}
    second:
      m_TileIndex: 0
      m_TileSpriteIndex: 36
      m_TileMatrixIndex: 0
      m_TileColorIndex: 0
      m_ObjectToInstantiate: {fileID: 0}
      m_TileFlags: 1
      m_ColliderType: 1
  - first: {x: -1, y: -13, z: 0}
    second:
      m_TileIndex: 9
      m_TileSpriteIndex: 35
      m_TileMatrixIndex: 0
      m_TileColorIndex: 0
      m_ObjectToInstantiate: {fileID: 0}
      m_TileFlags: 1
      m_ColliderType: 1
  - first: {x: 2, y: -13, z: 0}
    second:
      m_TileIndex: 2
      m_TileSpriteIndex: 34
      m_TileMatrixIndex: 0
      m_TileColorIndex: 0
      m_ObjectToInstantiate: {fileID: 0}
      m_TileFlags: 1
      m_ColliderType: 1
  - first: {x: 3, y: -13, z: 0}
    second:
      m_TileIndex: 1
      m_TileSpriteIndex: 33
      m_TileMatrixIndex: 0
      m_TileColorIndex: 0
      m_ObjectToInstantiate: {fileID: 0}
      m_TileFlags: 1
      m_ColliderType: 1
  - first: {x: 4, y: -13, z: 0}
    second:
      m_TileIndex: 3
      m_TileSpriteIndex: 32
      m_TileMatrixIndex: 0
      m_TileColorIndex: 0
      m_ObjectToInstantiate: {fileID: 0}
      m_TileFlags: 1
      m_ColliderType: 1
  - first: {x: -1, y: -12, z: 0}
    second:
      m_TileIndex: 8
      m_TileSpriteIndex: 31
      m_TileMatrixIndex: 0
      m_TileColorIndex: 0
      m_ObjectToInstantiate: {fileID: 0}
      m_TileFlags: 1
      m_ColliderType: 1
  - first: {x: 0, y: -12, z: 0}
    second:
      m_TileIndex: 7
      m_TileSpriteIndex: 30
      m_TileMatrixIndex: 0
      m_TileColorIndex: 0
      m_ObjectToInstantiate: {fileID: 0}
      m_TileFlags: 1
      m_ColliderType: 1
  - first: {x: 1, y: -12, z: 0}
    second:
      m_TileIndex: 6
      m_TileSpriteIndex: 29
      m_TileMatrixIndex: 0
      m_TileColorIndex: 0
      m_ObjectToInstantiate: {fileID: 0}
      m_TileFlags: 1
      m_ColliderType: 1
  - first: {x: 3, y: -12, z: 0}
    second:
      m_TileIndex: 4
      m_TileSpriteIndex: 28
      m_TileMatrixIndex: 0
      m_TileColorIndex: 0
      m_ObjectToInstantiate: {fileID: 0}
      m_TileFlags: 1
      m_ColliderType: 1
  m_AnimatedTiles: {}
  m_TileAssetArray:
  - m_RefCount: 1
    m_Data: {fileID: 11400000, guid: 0d51abfc65b7b024582962e58544efef, type: 2}
  - m_RefCount: 1
    m_Data: {fileID: 11400000, guid: af7d45437fe16ff4da4e1747987a199a, type: 2}
  - m_RefCount: 1
    m_Data: {fileID: 11400000, guid: 8e181419ffba77547b0d7d8fe4d74f31, type: 2}
  - m_RefCount: 1
    m_Data: {fileID: 11400000, guid: 1c6d88f164630c54da1c703c0c62d7a3, type: 2}
  - m_RefCount: 1
    m_Data: {fileID: 11400000, guid: 3f849d2775e274943ab4f7abd8171154, type: 2}
  - m_RefCount: 1
    m_Data: {fileID: 11400000, guid: fbbee5b9a7197d44b9b502af4ada3a91, type: 2}
  - m_RefCount: 1
    m_Data: {fileID: 11400000, guid: d1f690ca57df2994b859909f12d19654, type: 2}
  - m_RefCount: 1
    m_Data: {fileID: 11400000, guid: 22a177f44906ded4f83b47d3fca3d926, type: 2}
  - m_RefCount: 1
    m_Data: {fileID: 11400000, guid: 9fbca1a89571c484d9788d6308d5033e, type: 2}
  - m_RefCount: 1
    m_Data: {fileID: 11400000, guid: 8d04818f6c392b1448fb65582f8b7033, type: 2}
  - m_RefCount: 1
    m_Data: {fileID: 11400000, guid: aea69c4f02b7c554f99b5320e3692a37, type: 2}
  - m_RefCount: 1
    m_Data: {fileID: 11400000, guid: 7388b82ea445c6440b63e71af0a0bffd, type: 2}
  - m_RefCount: 1
    m_Data: {fileID: 11400000, guid: 0bba73039b599894f9d57e6f639d7ec1, type: 2}
  - m_RefCount: 1
    m_Data: {fileID: 11400000, guid: 88c945fc138d1324dab28262d8ce8ef7, type: 2}
  - m_RefCount: 1
    m_Data: {fileID: 11400000, guid: 24390c28b49fb3940b8da3bdd21db258, type: 2}
  - m_RefCount: 1
    m_Data: {fileID: 11400000, guid: d63938b6235d6c34388f88a15fae2432, type: 2}
  - m_RefCount: 1
    m_Data: {fileID: 11400000, guid: ee42d27d5d284bf41b6dadd8cc80b76c, type: 2}
  - m_RefCount: 1
    m_Data: {fileID: 11400000, guid: e1167f8272b1d8e4c9f2c925584b75a7, type: 2}
  - m_RefCount: 1
    m_Data: {fileID: 11400000, guid: de0b8a2bda79cfc40917abf8784e6334, type: 2}
  - m_RefCount: 1
    m_Data: {fileID: 11400000, guid: f0477e22754a89b4b850216b22e84584, type: 2}
  - m_RefCount: 1
    m_Data: {fileID: 11400000, guid: ad7b28b2409520448a49eb2139558feb, type: 2}
  - m_RefCount: 1
    m_Data: {fileID: 11400000, guid: 8299ddb94e94b794bbd3c9e25ac0aa18, type: 2}
  - m_RefCount: 1
    m_Data: {fileID: 11400000, guid: 755994194a8ea3c4dbfe98e5ed442fcf, type: 2}
  - m_RefCount: 1
    m_Data: {fileID: 11400000, guid: b385488b562213c48921536a93f90bd3, type: 2}
  - m_RefCount: 1
    m_Data: {fileID: 11400000, guid: 9fad9755b312efe499937b5c1455d0fc, type: 2}
  - m_RefCount: 1
    m_Data: {fileID: 11400000, guid: ee9d42c93b3443c40b17684856ce65fe, type: 2}
  - m_RefCount: 1
    m_Data: {fileID: 11400000, guid: a743b84c1efbb024d9754c78a2e895d5, type: 2}
  - m_RefCount: 1
    m_Data: {fileID: 11400000, guid: d8e5e8462b20c9446bcb075febf48cc6, type: 2}
  - m_RefCount: 1
    m_Data: {fileID: 11400000, guid: 04a9c622d0e73eb4eabc50ff364a5ca8, type: 2}
  - m_RefCount: 2
    m_Data: {fileID: 11400000, guid: 9e60e4335eff20642a3962badd4d4e92, type: 2}
  - m_RefCount: 1
    m_Data: {fileID: 11400000, guid: 0a3f46d8b7535064e87854a65c1f7120, type: 2}
  - m_RefCount: 1
    m_Data: {fileID: 11400000, guid: 1c5577b1787371b46985d706f39e058f, type: 2}
  - m_RefCount: 1
    m_Data: {fileID: 11400000, guid: 1d3214f8e3a45c04f9f77904d9a10557, type: 2}
  - m_RefCount: 1
    m_Data: {fileID: 11400000, guid: 9749a58542f6f79499b533d97995396c, type: 2}
  - m_RefCount: 1
    m_Data: {fileID: 11400000, guid: 841e55d4e4b0bd44fb83137ef5797d63, type: 2}
  - m_RefCount: 1
    m_Data: {fileID: 11400000, guid: b9377f3b29aa06049913e2156895cf62, type: 2}
  - m_RefCount: 2
    m_Data: {fileID: 11400000, guid: dbe6e58fc36879d4faa0350b0f6bedf1, type: 2}
  - m_RefCount: 1
    m_Data: {fileID: 11400000, guid: fcb9dcdde99b1264f85ecfa810c72e5e, type: 2}
  - m_RefCount: 1
    m_Data: {fileID: 11400000, guid: b444620e5e476754d906b12e90ffa1c4, type: 2}
  - m_RefCount: 1
    m_Data: {fileID: 11400000, guid: 87c03318e7cec114f9694b4d1d740471, type: 2}
  - m_RefCount: 1
    m_Data: {fileID: 11400000, guid: d1f38e07eaaa185419a45328478eee38, type: 2}
  - m_RefCount: 1
    m_Data: {fileID: 11400000, guid: 7588636ac698dba4480ee20e6415f269, type: 2}
  - m_RefCount: 1
    m_Data: {fileID: 11400000, guid: 026b6f6395bdbb941bd2596d7e1514a1, type: 2}
  - m_RefCount: 1
    m_Data: {fileID: 11400000, guid: d829107258e32fe47874987997902434, type: 2}
  - m_RefCount: 1
    m_Data: {fileID: 11400000, guid: b907c837cb73d294f9037d3c3f817ff6, type: 2}
  - m_RefCount: 1
    m_Data: {fileID: 11400000, guid: 2228433cb39739d4485887d202be2286, type: 2}
  - m_RefCount: 1
    m_Data: {fileID: 11400000, guid: 5cfeec4234e102d4cb5fb91cee062359, type: 2}
  - m_RefCount: 1
    m_Data: {fileID: 11400000, guid: 6265389ce38be83489032b936f735481, type: 2}
  - m_RefCount: 1
    m_Data: {fileID: 11400000, guid: 3443f07e0742d6f4eb0e606de68f37a4, type: 2}
  - m_RefCount: 1
    m_Data: {fileID: 11400000, guid: f716ab85d1830ed45b39cf8e05bb82ae, type: 2}
  - m_RefCount: 1
    m_Data: {fileID: 11400000, guid: e1a0fb52248a9604fa4c9a51f43a789d, type: 2}
  - m_RefCount: 1
    m_Data: {fileID: 11400000, guid: df0ee0149000fd34d9bf33f8ca871ddc, type: 2}
  - m_RefCount: 1
    m_Data: {fileID: 11400000, guid: 33ac6b7654a40d140a6046e68097c450, type: 2}
  - m_RefCount: 1
    m_Data: {fileID: 11400000, guid: 68b982b9dbf638f488f154190dd2b08b, type: 2}
  - m_RefCount: 1
    m_Data: {fileID: 11400000, guid: 5df02c18730a90c4188dc45d022cb69d, type: 2}
  - m_RefCount: 1
    m_Data: {fileID: 11400000, guid: 175196b049d0e784f8c9e06c7e6dbcfd, type: 2}
  - m_RefCount: 1
    m_Data: {fileID: 11400000, guid: 3fa60b19a95c2f040be07581d52169f2, type: 2}
  - m_RefCount: 1
    m_Data: {fileID: 11400000, guid: 9311010ef36d15e4499b273189a86a65, type: 2}
  - m_RefCount: 1
    m_Data: {fileID: 11400000, guid: d7edbe43c4b40b84cb6ae42466e55199, type: 2}
  - m_RefCount: 1
    m_Data: {fileID: 11400000, guid: f1dc785b1bbb9464da55a60317974ea4, type: 2}
  - m_RefCount: 1
    m_Data: {fileID: 11400000, guid: f7ce019a498c1fa4bb65651331f5a1a7, type: 2}
  - m_RefCount: 1
    m_Data: {fileID: 11400000, guid: 446ca3e6780468d4aadb6455b6b3be26, type: 2}
  - m_RefCount: 1
    m_Data: {fileID: 11400000, guid: 78592bacc53769e4abc211f65a2b6ccf, type: 2}
  - m_RefCount: 1
    m_Data: {fileID: 11400000, guid: 318e4b064570214449a7da2355dabb2d, type: 2}
  - m_RefCount: 1
    m_Data: {fileID: 11400000, guid: 3265a28617d61aa44abc9800a1431664, type: 2}
  - m_RefCount: 1
    m_Data: {fileID: 11400000, guid: 2b7228a86550a5d4e9864abe8757ecbb, type: 2}
  - m_RefCount: 1
    m_Data: {fileID: 11400000, guid: f961ec485f4d27241aa7c13a80ce320c, type: 2}
  - m_RefCount: 1
    m_Data: {fileID: 11400000, guid: 9f0a1e06cc850aa42bbfd2f3957ba686, type: 2}
  - m_RefCount: 1
    m_Data: {fileID: 11400000, guid: d67714a5327c45445ac2169374d2db62, type: 2}
  - m_RefCount: 0
    m_Data: {fileID: 0}
  - m_RefCount: 0
    m_Data: {fileID: 0}
  - m_RefCount: 0
    m_Data: {fileID: 0}
  - m_RefCount: 0
    m_Data: {fileID: 0}
  - m_RefCount: 0
    m_Data: {fileID: 0}
  - m_RefCount: 0
    m_Data: {fileID: 0}
  - m_RefCount: 0
    m_Data: {fileID: 0}
  - m_RefCount: 0
    m_Data: {fileID: 0}
  - m_RefCount: 0
    m_Data: {fileID: 0}
  - m_RefCount: 0
    m_Data: {fileID: 0}
  - m_RefCount: 0
    m_Data: {fileID: 0}
  - m_RefCount: 0
    m_Data: {fileID: 0}
  - m_RefCount: 0
    m_Data: {fileID: 0}
  - m_RefCount: 0
    m_Data: {fileID: 0}
  - m_RefCount: 0
    m_Data: {fileID: 0}
  - m_RefCount: 0
    m_Data: {fileID: 0}
  - m_RefCount: 8
    m_Data: {fileID: 11400000, guid: f5054430d3f29cb4c87b4ed29cc445ee, type: 2}
  - m_RefCount: 9
    m_Data: {fileID: 11400000, guid: 9e7b96228a5558e4281318d2c51847fc, type: 2}
  - m_RefCount: 8
    m_Data: {fileID: 11400000, guid: c61b33af84a0816459e1a35eeb0fd177, type: 2}
  - m_RefCount: 1
    m_Data: {fileID: 11400000, guid: 0effd1f79f8283c42953dbaefff88fab, type: 2}
  - m_RefCount: 1
    m_Data: {fileID: 11400000, guid: 80bc9d8c8b5a03348a17b2a89081a5ef, type: 2}
  - m_RefCount: 1
    m_Data: {fileID: 11400000, guid: 5dddab6570fe8b142aef51baed472cae, type: 2}
  - m_RefCount: 8
    m_Data: {fileID: 11400000, guid: bac36df3323bc854b9b4171b10d309df, type: 2}
  m_TileSpriteArray:
  - m_RefCount: 0
    m_Data: {fileID: 0}
  - m_RefCount: 0
    m_Data: {fileID: 0}
  - m_RefCount: 0
    m_Data: {fileID: 0}
  - m_RefCount: 0
    m_Data: {fileID: 0}
  - m_RefCount: 0
    m_Data: {fileID: 0}
  - m_RefCount: 0
    m_Data: {fileID: 0}
  - m_RefCount: 0
    m_Data: {fileID: 0}
  - m_RefCount: 0
    m_Data: {fileID: 0}
  - m_RefCount: 0
    m_Data: {fileID: 0}
  - m_RefCount: 0
    m_Data: {fileID: 0}
  - m_RefCount: 2
    m_Data: {fileID: 21300026, guid: 8111130dccb51f14d8ee57bf7c73e77f, type: 3}
  - m_RefCount: 0
    m_Data: {fileID: 0}
  - m_RefCount: 0
    m_Data: {fileID: 0}
  - m_RefCount: 0
    m_Data: {fileID: 0}
  - m_RefCount: 0
    m_Data: {fileID: 0}
  - m_RefCount: 0
    m_Data: {fileID: 0}
  - m_RefCount: 0
    m_Data: {fileID: 0}
  - m_RefCount: 2
    m_Data: {fileID: 21300012, guid: 8111130dccb51f14d8ee57bf7c73e77f, type: 3}
  - m_RefCount: 0
    m_Data: {fileID: 0}
  - m_RefCount: 0
    m_Data: {fileID: 0}
  - m_RefCount: 0
    m_Data: {fileID: 0}
  - m_RefCount: 0
    m_Data: {fileID: 0}
  - m_RefCount: 0
    m_Data: {fileID: 0}
  - m_RefCount: 0
    m_Data: {fileID: 0}
  - m_RefCount: 1
    m_Data: {fileID: -5882170695943828418, guid: dea4eceb81bb95d418bb29d1a9da31ae,
      type: 3}
  - m_RefCount: 5
    m_Data: {fileID: 1418520651050049105, guid: 37b3cd97ae4acd3428754ea06a6568ea,
      type: 3}
  - m_RefCount: 1
    m_Data: {fileID: 3847269409773156432, guid: 37b3cd97ae4acd3428754ea06a6568ea,
      type: 3}
  - m_RefCount: 2
    m_Data: {fileID: 3463165442898614799, guid: 37b3cd97ae4acd3428754ea06a6568ea,
      type: 3}
  - m_RefCount: 1
    m_Data: {fileID: 21300008, guid: 35cc1d442e32fbd4fb4bf5747608f81b, type: 3}
  - m_RefCount: 1
    m_Data: {fileID: 21300012, guid: 35cc1d442e32fbd4fb4bf5747608f81b, type: 3}
  - m_RefCount: 1
    m_Data: {fileID: 21300014, guid: 35cc1d442e32fbd4fb4bf5747608f81b, type: 3}
  - m_RefCount: 1
    m_Data: {fileID: 21300016, guid: 35cc1d442e32fbd4fb4bf5747608f81b, type: 3}
  - m_RefCount: 1
    m_Data: {fileID: 21300006, guid: 35cc1d442e32fbd4fb4bf5747608f81b, type: 3}
  - m_RefCount: 1
    m_Data: {fileID: 21300002, guid: 35cc1d442e32fbd4fb4bf5747608f81b, type: 3}
  - m_RefCount: 1
    m_Data: {fileID: 21300004, guid: 35cc1d442e32fbd4fb4bf5747608f81b, type: 3}
  - m_RefCount: 1
    m_Data: {fileID: 21300018, guid: 35cc1d442e32fbd4fb4bf5747608f81b, type: 3}
  - m_RefCount: 1
    m_Data: {fileID: 21300000, guid: 35cc1d442e32fbd4fb4bf5747608f81b, type: 3}
  - m_RefCount: 1
    m_Data: {fileID: 21300010, guid: 35cc1d442e32fbd4fb4bf5747608f81b, type: 3}
  - m_RefCount: 1
    m_Data: {fileID: 21300020, guid: 35cc1d442e32fbd4fb4bf5747608f81b, type: 3}
  - m_RefCount: 1
    m_Data: {fileID: 21300008, guid: 8111130dccb51f14d8ee57bf7c73e77f, type: 3}
  - m_RefCount: 1
    m_Data: {fileID: 21300006, guid: 8111130dccb51f14d8ee57bf7c73e77f, type: 3}
  - m_RefCount: 1
    m_Data: {fileID: 21300004, guid: 8111130dccb51f14d8ee57bf7c73e77f, type: 3}
  - m_RefCount: 1
    m_Data: {fileID: 21300002, guid: 8111130dccb51f14d8ee57bf7c73e77f, type: 3}
  - m_RefCount: 1
    m_Data: {fileID: 21300000, guid: 8111130dccb51f14d8ee57bf7c73e77f, type: 3}
  - m_RefCount: 1
    m_Data: {fileID: 21300018, guid: 8111130dccb51f14d8ee57bf7c73e77f, type: 3}
  - m_RefCount: 1
    m_Data: {fileID: 21300016, guid: 8111130dccb51f14d8ee57bf7c73e77f, type: 3}
  - m_RefCount: 1
    m_Data: {fileID: 21300014, guid: 8111130dccb51f14d8ee57bf7c73e77f, type: 3}
  - m_RefCount: 1
    m_Data: {fileID: 21300010, guid: 8111130dccb51f14d8ee57bf7c73e77f, type: 3}
  - m_RefCount: 1
    m_Data: {fileID: 21300024, guid: 8111130dccb51f14d8ee57bf7c73e77f, type: 3}
  - m_RefCount: 1
    m_Data: {fileID: 21300022, guid: 8111130dccb51f14d8ee57bf7c73e77f, type: 3}
  - m_RefCount: 1
    m_Data: {fileID: 21300020, guid: 8111130dccb51f14d8ee57bf7c73e77f, type: 3}
  - m_RefCount: 1
    m_Data: {fileID: 21300014, guid: ceafe5bd379415542b817536a28fb3bc, type: 3}
  - m_RefCount: 1
    m_Data: {fileID: 21300012, guid: ceafe5bd379415542b817536a28fb3bc, type: 3}
  - m_RefCount: 1
    m_Data: {fileID: 21300010, guid: ceafe5bd379415542b817536a28fb3bc, type: 3}
  - m_RefCount: 1
    m_Data: {fileID: 21300008, guid: ceafe5bd379415542b817536a28fb3bc, type: 3}
  - m_RefCount: 1
    m_Data: {fileID: 21300006, guid: ceafe5bd379415542b817536a28fb3bc, type: 3}
  - m_RefCount: 1
    m_Data: {fileID: 21300004, guid: ceafe5bd379415542b817536a28fb3bc, type: 3}
  - m_RefCount: 1
    m_Data: {fileID: 21300002, guid: ceafe5bd379415542b817536a28fb3bc, type: 3}
  - m_RefCount: 1
    m_Data: {fileID: 21300000, guid: ceafe5bd379415542b817536a28fb3bc, type: 3}
  - m_RefCount: 1
    m_Data: {fileID: 21300030, guid: ceafe5bd379415542b817536a28fb3bc, type: 3}
  - m_RefCount: 1
    m_Data: {fileID: 21300028, guid: ceafe5bd379415542b817536a28fb3bc, type: 3}
  - m_RefCount: 1
    m_Data: {fileID: 21300026, guid: ceafe5bd379415542b817536a28fb3bc, type: 3}
  - m_RefCount: 1
    m_Data: {fileID: 21300024, guid: ceafe5bd379415542b817536a28fb3bc, type: 3}
  - m_RefCount: 1
    m_Data: {fileID: 21300022, guid: ceafe5bd379415542b817536a28fb3bc, type: 3}
  - m_RefCount: 1
    m_Data: {fileID: 21300020, guid: ceafe5bd379415542b817536a28fb3bc, type: 3}
  - m_RefCount: 1
    m_Data: {fileID: 21300018, guid: ceafe5bd379415542b817536a28fb3bc, type: 3}
  - m_RefCount: 1
    m_Data: {fileID: 21300016, guid: ceafe5bd379415542b817536a28fb3bc, type: 3}
  - m_RefCount: 1
    m_Data: {fileID: 21300046, guid: ceafe5bd379415542b817536a28fb3bc, type: 3}
  - m_RefCount: 1
    m_Data: {fileID: 21300044, guid: ceafe5bd379415542b817536a28fb3bc, type: 3}
  - m_RefCount: 1
    m_Data: {fileID: 21300042, guid: ceafe5bd379415542b817536a28fb3bc, type: 3}
  - m_RefCount: 1
    m_Data: {fileID: 21300040, guid: ceafe5bd379415542b817536a28fb3bc, type: 3}
  - m_RefCount: 1
    m_Data: {fileID: 21300038, guid: ceafe5bd379415542b817536a28fb3bc, type: 3}
  - m_RefCount: 1
    m_Data: {fileID: 21300036, guid: ceafe5bd379415542b817536a28fb3bc, type: 3}
  - m_RefCount: 1
    m_Data: {fileID: 21300034, guid: ceafe5bd379415542b817536a28fb3bc, type: 3}
  - m_RefCount: 1
    m_Data: {fileID: 21300032, guid: ceafe5bd379415542b817536a28fb3bc, type: 3}
  - m_RefCount: 1
    m_Data: {fileID: 21300062, guid: ceafe5bd379415542b817536a28fb3bc, type: 3}
  - m_RefCount: 1
    m_Data: {fileID: 21300060, guid: ceafe5bd379415542b817536a28fb3bc, type: 3}
  - m_RefCount: 1
    m_Data: {fileID: 21300058, guid: ceafe5bd379415542b817536a28fb3bc, type: 3}
  - m_RefCount: 1
    m_Data: {fileID: 21300056, guid: ceafe5bd379415542b817536a28fb3bc, type: 3}
  - m_RefCount: 1
    m_Data: {fileID: 21300054, guid: ceafe5bd379415542b817536a28fb3bc, type: 3}
  - m_RefCount: 1
    m_Data: {fileID: 21300052, guid: ceafe5bd379415542b817536a28fb3bc, type: 3}
  - m_RefCount: 1
    m_Data: {fileID: 21300050, guid: ceafe5bd379415542b817536a28fb3bc, type: 3}
  - m_RefCount: 2
    m_Data: {fileID: 2289616372777055746, guid: bbe6f6f3d8d11e744910f5808f09f8a9,
      type: 3}
  - m_RefCount: 1
    m_Data: {fileID: 21300048, guid: ceafe5bd379415542b817536a28fb3bc, type: 3}
  - m_RefCount: 1
    m_Data: {fileID: 21300070, guid: ceafe5bd379415542b817536a28fb3bc, type: 3}
  - m_RefCount: 1
    m_Data: {fileID: 21300068, guid: ceafe5bd379415542b817536a28fb3bc, type: 3}
  - m_RefCount: 5
    m_Data: {fileID: 475435623110610922, guid: bbe6f6f3d8d11e744910f5808f09f8a9, type: 3}
  - m_RefCount: 1
    m_Data: {fileID: 21300066, guid: ceafe5bd379415542b817536a28fb3bc, type: 3}
  - m_RefCount: 1
    m_Data: {fileID: 21300064, guid: ceafe5bd379415542b817536a28fb3bc, type: 3}
  - m_RefCount: 1
    m_Data: {fileID: 21300086, guid: ceafe5bd379415542b817536a28fb3bc, type: 3}
  - m_RefCount: 1
    m_Data: {fileID: 21300084, guid: ceafe5bd379415542b817536a28fb3bc, type: 3}
  - m_RefCount: 1
    m_Data: {fileID: 5057704644399378504, guid: 37b3cd97ae4acd3428754ea06a6568ea,
      type: 3}
  - m_RefCount: 1
    m_Data: {fileID: 21300082, guid: ceafe5bd379415542b817536a28fb3bc, type: 3}
  - m_RefCount: 1
    m_Data: {fileID: 21300080, guid: ceafe5bd379415542b817536a28fb3bc, type: 3}
  - m_RefCount: 2
    m_Data: {fileID: 327262670979187903, guid: 7a6bb45765669d548b85bca1d5aad1f7, type: 3}
  - m_RefCount: 5
    m_Data: {fileID: 8143344196964213178, guid: 7a6bb45765669d548b85bca1d5aad1f7,
      type: 3}
  - m_RefCount: 1
    m_Data: {fileID: 21300078, guid: ceafe5bd379415542b817536a28fb3bc, type: 3}
  - m_RefCount: 1
    m_Data: {fileID: 21300076, guid: ceafe5bd379415542b817536a28fb3bc, type: 3}
  - m_RefCount: 1
    m_Data: {fileID: 21300074, guid: ceafe5bd379415542b817536a28fb3bc, type: 3}
  - m_RefCount: 1
    m_Data: {fileID: 21300072, guid: ceafe5bd379415542b817536a28fb3bc, type: 3}
  - m_RefCount: 1
    m_Data: {fileID: -7504709878752999052, guid: dea4eceb81bb95d418bb29d1a9da31ae,
      type: 3}
  - m_RefCount: 1
    m_Data: {fileID: 1423580199096852351, guid: bbe6f6f3d8d11e744910f5808f09f8a9,
      type: 3}
  - m_RefCount: 4
    m_Data: {fileID: 8088830456793213489, guid: dea4eceb81bb95d418bb29d1a9da31ae,
      type: 3}
  - m_RefCount: 1
    m_Data: {fileID: 7867572149665653903, guid: bbe6f6f3d8d11e744910f5808f09f8a9,
      type: 3}
  - m_RefCount: 1
    m_Data: {fileID: 2664101274904992878, guid: dea4eceb81bb95d418bb29d1a9da31ae,
      type: 3}
  - m_RefCount: 1
    m_Data: {fileID: -5687361123222850187, guid: 7a6bb45765669d548b85bca1d5aad1f7,
      type: 3}
  - m_RefCount: 1
    m_Data: {fileID: 4109183190598220970, guid: 7a6bb45765669d548b85bca1d5aad1f7,
      type: 3}
  - m_RefCount: 1
    m_Data: {fileID: 3162826104367349501, guid: dea4eceb81bb95d418bb29d1a9da31ae,
      type: 3}
  m_TileMatrixArray:
  - m_RefCount: 82
    m_Data:
      e00: 1
      e01: 0
      e02: 0
      e03: 0
      e10: 0
      e11: 1
      e12: 0
      e13: 0
      e20: 0
      e21: 0
      e22: 1
      e23: 0
      e30: 0
      e31: 0
      e32: 0
      e33: 1
  - m_RefCount: 9
    m_Data:
      e00: -1
      e01: -0.00000008742278
      e02: -0
      e03: 0
      e10: 0.00000008742278
      e11: -1
      e12: 0
      e13: 0
      e20: 0
      e21: -0
      e22: 1
      e23: 0
      e30: 0
      e31: 0
      e32: 0
      e33: 1
  - m_RefCount: 8
    m_Data:
      e00: 0.000000059604645
      e01: -0.99999994
      e02: -0
      e03: 0
      e10: 0.99999994
      e11: 0.000000059604645
      e12: 0
      e13: 0
      e20: 0
      e21: -0
      e22: 1
      e23: 0
      e30: 0
      e31: 0
      e32: 0
      e33: 1
  - m_RefCount: 8
    m_Data:
      e00: 0.000000059604645
      e01: 0.99999994
      e02: 0
      e03: 0
      e10: -0.99999994
      e11: 0.000000059604645
      e12: -0
      e13: 0
      e20: -0
      e21: 0
      e22: 1
      e23: 0
      e30: 0
      e31: 0
      e32: 0
      e33: 1
  m_TileColorArray:
  - m_RefCount: 107
    m_Data: {r: 1, g: 1, b: 1, a: 1}
  - m_RefCount: 0
    m_Data: {r: NaN, g: NaN, b: NaN, a: NaN}
  - m_RefCount: 0
    m_Data: {r: NaN, g: NaN, b: NaN, a: NaN}
  - m_RefCount: 0
    m_Data: {r: NaN, g: NaN, b: NaN, a: NaN}
  - m_RefCount: 0
    m_Data: {r: NaN, g: NaN, b: NaN, a: NaN}
  - m_RefCount: 0
    m_Data: {r: NaN, g: NaN, b: NaN, a: NaN}
  - m_RefCount: 0
    m_Data: {r: NaN, g: NaN, b: NaN, a: NaN}
  - m_RefCount: 0
    m_Data: {r: NaN, g: NaN, b: NaN, a: NaN}
  - m_RefCount: 0
    m_Data: {r: NaN, g: NaN, b: NaN, a: NaN}
  - m_RefCount: 0
    m_Data: {r: NaN, g: NaN, b: NaN, a: NaN}
  - m_RefCount: 0
    m_Data: {r: NaN, g: NaN, b: NaN, a: NaN}
  - m_RefCount: 0
    m_Data: {r: NaN, g: NaN, b: NaN, a: NaN}
  - m_RefCount: 0
    m_Data: {r: NaN, g: NaN, b: NaN, a: NaN}
  - m_RefCount: 0
    m_Data: {r: NaN, g: NaN, b: NaN, a: NaN}
  - m_RefCount: 0
    m_Data: {r: NaN, g: NaN, b: NaN, a: NaN}
  - m_RefCount: 0
    m_Data: {r: NaN, g: NaN, b: NaN, a: NaN}
  - m_RefCount: 0
    m_Data: {r: NaN, g: NaN, b: NaN, a: NaN}
  - m_RefCount: 0
    m_Data: {r: 6e-45, g: 6e-45, b: 6e-45, a: 6e-45}
  - m_RefCount: 0
    m_Data: {r: 3e-45, g: 3e-45, b: 3e-45, a: 3e-45}
  - m_RefCount: 0
    m_Data: {r: 1e-45, g: 1e-45, b: 1e-45, a: 1e-45}
  - m_RefCount: 0
    m_Data: {r: 0, g: 0, b: 0, a: 0}
  - m_RefCount: 0
    m_Data: {r: NaN, g: NaN, b: NaN, a: NaN}
  - m_RefCount: 0
    m_Data: {r: 7e-45, g: 7e-45, b: 7e-45, a: 7e-45}
  - m_RefCount: 0
    m_Data: {r: 6e-45, g: 6e-45, b: 6e-45, a: 6e-45}
  - m_RefCount: 0
    m_Data: {r: 4e-45, g: 4e-45, b: 4e-45, a: 4e-45}
  - m_RefCount: 0
    m_Data: {r: 3e-45, g: 3e-45, b: 3e-45, a: 3e-45}
  - m_RefCount: 0
    m_Data: {r: 1e-45, g: 1e-45, b: 1e-45, a: 1e-45}
  - m_RefCount: 0
    m_Data: {r: 0, g: 0, b: 0, a: 0}
  - m_RefCount: 0
    m_Data: {r: NaN, g: NaN, b: NaN, a: NaN}
  - m_RefCount: 0
    m_Data: {r: 3e-45, g: 3e-45, b: 3e-45, a: 3e-45}
  - m_RefCount: 0
    m_Data: {r: 1e-45, g: 1e-45, b: 1e-45, a: 1e-45}
  - m_RefCount: 0
    m_Data: {r: 0, g: 0, b: 0, a: 0}
  - m_RefCount: 0
    m_Data: {r: NaN, g: NaN, b: NaN, a: NaN}
  m_AnimationFrameRate: 1
  m_Color: {r: 1, g: 1, b: 1, a: 1}
  m_Origin: {x: -3, y: -36, z: 0}
  m_Size: {x: 15, y: 36, z: 1}
  m_TileAnchor: {x: 0.5, y: 0.5, z: 0}
  m_TileOrientation: 0
  m_TileOrientationMatrix:
    e00: 1
    e01: 0
    e02: 0
    e03: 0
    e10: 0
    e11: 1
    e12: 0
    e13: 0
    e20: 0
    e21: 0
    e22: 1
    e23: 0
    e30: 0
    e31: 0
    e32: 0
    e33: 1
--- !u!483693784 &1535423773756321225
TilemapRenderer:
  m_ObjectHideFlags: 0
  m_CorrespondingSourceObject: {fileID: 0}
  m_PrefabInstance: {fileID: 0}
  m_PrefabAsset: {fileID: 0}
  m_GameObject: {fileID: 4169860164885504427}
  m_Enabled: 0
  m_CastShadows: 0
  m_ReceiveShadows: 0
  m_DynamicOccludee: 0
  m_MotionVectors: 1
  m_LightProbeUsage: 0
  m_ReflectionProbeUsage: 0
  m_RenderingLayerMask: 1
  m_RendererPriority: 0
  m_Materials:
  - {fileID: 10754, guid: 0000000000000000f000000000000000, type: 0}
  m_StaticBatchInfo:
    firstSubMesh: 0
    subMeshCount: 0
  m_StaticBatchRoot: {fileID: 0}
  m_ProbeAnchor: {fileID: 0}
  m_LightProbeVolumeOverride: {fileID: 0}
  m_ScaleInLightmap: 1
  m_PreserveUVs: 0
  m_IgnoreNormalsForChartDetection: 0
  m_ImportantGI: 0
  m_StitchLightmapSeams: 0
  m_SelectedEditorRenderState: 0
  m_MinimumChartSize: 4
  m_AutoUVMaxDistance: 0.5
  m_AutoUVMaxAngle: 89
  m_LightmapParameters: {fileID: 0}
  m_SortingLayerID: 0
  m_SortingLayer: 0
  m_SortingOrder: 0
  m_ChunkSize: {x: 32, y: 32, z: 32}
  m_ChunkCullingBounds: {x: 0, y: 0, z: 0}
  m_MaxChunkCount: 16
  m_MaxFrameAge: 16
  m_SortOrder: 0
  m_Mode: 0
  m_DetectChunkCullingBounds: 0
  m_MaskInteraction: 0
--- !u!1 &4630349512914385656
GameObject:
  m_ObjectHideFlags: 0
  m_CorrespondingSourceObject: {fileID: 0}
  m_PrefabInstance: {fileID: 0}
  m_PrefabAsset: {fileID: 0}
  serializedVersion: 6
  m_Component:
  - component: {fileID: 4419456803893104196}
  - component: {fileID: 1322352519163868629}
  m_Layer: 31
  m_Name: Walls
  m_TagString: Untagged
  m_Icon: {fileID: 0}
  m_NavMeshLayer: 0
  m_StaticEditorFlags: 0
  m_IsActive: 1
--- !u!4 &4419456803893104196
Transform:
  m_ObjectHideFlags: 0
  m_CorrespondingSourceObject: {fileID: 0}
  m_PrefabInstance: {fileID: 0}
  m_PrefabAsset: {fileID: 0}
  m_GameObject: {fileID: 4630349512914385656}
  m_LocalRotation: {x: 0, y: 0, z: 0, w: 1}
  m_LocalPosition: {x: 0, y: 0, z: 0}
  m_LocalScale: {x: 1, y: 1, z: 1}
  m_Children:
  - {fileID: 9083101042173992463}
  m_Father: {fileID: 0}
  m_RootOrder: 0
  m_LocalEulerAnglesHint: {x: 0, y: 0, z: 0}
--- !u!156049354 &1322352519163868629
Grid:
  m_ObjectHideFlags: 0
  m_CorrespondingSourceObject: {fileID: 0}
  m_PrefabInstance: {fileID: 0}
  m_PrefabAsset: {fileID: 0}
  m_GameObject: {fileID: 4630349512914385656}
  m_Enabled: 1
  m_CellSize: {x: 1, y: 1, z: 0}
  m_CellGap: {x: 0, y: 0, z: 0}
  m_CellLayout: 0
  m_CellSwizzle: 0
--- !u!114 &114424001243200018
MonoBehaviour:
  m_ObjectHideFlags: 0
  m_CorrespondingSourceObject: {fileID: 0}
  m_PrefabInstance: {fileID: 0}
  m_PrefabAsset: {fileID: 0}
  m_GameObject: {fileID: 0}
  m_Enabled: 1
  m_EditorHideFlags: 0
  m_Script: {fileID: 12395, guid: 0000000000000000e000000000000000, type: 0}
  m_Name: Palette Settings
  m_EditorClassIdentifier: 
  cellSizing: 0
