%YAML 1.1
%TAG !u! tag:unity3d.com,2011:
--- !u!1 &5284818139237527333
GameObject:
  m_ObjectHideFlags: 0
  m_CorrespondingSourceObject: {fileID: 0}
  m_PrefabInstance: {fileID: 0}
  m_PrefabAsset: {fileID: 0}
  serializedVersion: 6
  m_Component:
  - component: {fileID: 5284818139237527335}
  - component: {fileID: 5284818139237527332}
  - component: {fileID: 5284818139237527334}
  - component: {fileID: 9036371392436994460}
  m_Layer: 0
  m_Name: ExportManager
  m_TagString: Untagged
  m_Icon: {fileID: 0}
  m_NavMeshLayer: 0
  m_StaticEditorFlags: 0
  m_IsActive: 1
--- !u!4 &5284818139237527335
Transform:
  m_ObjectHideFlags: 0
  m_CorrespondingSourceObject: {fileID: 0}
  m_PrefabInstance: {fileID: 0}
  m_PrefabAsset: {fileID: 0}
  m_GameObject: {fileID: 5284818139237527333}
  m_LocalRotation: {x: 0, y: 0, z: 0, w: 1}
  m_LocalPosition: {x: 0, y: 0, z: 0}
  m_LocalScale: {x: 1, y: 1, z: 1}
  m_Children: []
  m_Father: {fileID: 0}
  m_RootOrder: 0
  m_LocalEulerAnglesHint: {x: 0, y: 0, z: 0}
--- !u!114 &5284818139237527332
MonoBehaviour:
  m_ObjectHideFlags: 0
  m_CorrespondingSourceObject: {fileID: 0}
  m_PrefabInstance: {fileID: 0}
  m_PrefabAsset: {fileID: 0}
  m_GameObject: {fileID: 5284818139237527333}
  m_Enabled: 1
  m_EditorHideFlags: 0
  m_Script: {fileID: 11500000, guid: aca70de02c7c5b74ba400a53d726a546, type: 3}
  m_Name: 
  m_EditorClassIdentifier: 
  forceLoad: 0
  items:
  - name: test
    Id: d35c0d4b-3a1e-468c-b535-ecdad5ba1664
    amount: 0
    worth: 0
    stackable: 0
    itemType: 10
    artPath: 
    spriteName: art/TestCharacter
    AddStats:
      Attack:
        amount: 0
        multiplier: 0
      Defence:
        amount: 0
        multiplier: 0
      Speed:
        amount: 0
        multiplier: 0
      Constitution:
        amount: 0
        multiplier: 0
  armours:
  - name: The helmet of sjofel
    Id: 3350a774-4d04-4b96-ba6b-811a64da2feb
    amount: 0
    worth: 0
    stackable: 0
    itemType: 50
    artPath: 
    spriteName: art/TestCharacter
    AddStats:
      Attack:
        amount: 2
        multiplier: 3.4
      Defence:
        amount: 0
        multiplier: 0
      Speed:
        amount: 0
        multiplier: 0
      Constitution:
        amount: 0
        multiplier: 0
    equipPlace: 0
  - name: Helmet
    Id: 9d1c91ea-666e-4319-99b4-0804788d508f
    amount: 0
    worth: 0
    stackable: 0
    itemType: 1
    artPath: 
    spriteName: art/TestCharacter
    AddStats:
      Attack:
        amount: 0
        multiplier: 0
      Defence:
        amount: 2
        multiplier: 3
      Speed:
        amount: 0
        multiplier: 0
      Constitution:
        amount: 0
        multiplier: 0
    equipPlace: 0
  - name: Quick feet
    Id: 64ff0cd1-5dc9-47e8-b6b5-7282ac031782
    amount: 0
    worth: 0
    stackable: 0
    itemType: 1
    artPath: 
    spriteName: art/TestCharacter
    AddStats:
      Attack:
        amount: 0
        multiplier: 0
      Defence:
        amount: 0
        multiplier: 0
      Speed:
        amount: 3
        multiplier: 5.5
      Constitution:
        amount: 0
        multiplier: 0
    equipPlace: 4
  - name: Heavy hands
    Id: 0656b715-b51e-4dbc-9043-c33f9c96b177
    amount: 0
    worth: 0
    stackable: 0
    itemType: 1
    artPath: 
    spriteName: art/TestCharacter
    AddStats:
      Attack:
        amount: 0
        multiplier: 0
      Defence:
        amount: 3
        multiplier: 1.5
      Speed:
        amount: 3
        multiplier: -1
      Constitution:
        amount: 0
        multiplier: 0
    equipPlace: 2
  - name: Hearth torso
    Id: 494b987d-e06e-444f-a6f5-cfc8b5dee086
    amount: 0
    worth: 0
    stackable: 0
    itemType: 20
    artPath: 
    spriteName: art/TestCharacter
    AddStats:
      Attack:
        amount: 0
        multiplier: 0
      Defence:
        amount: 0
        multiplier: 0
      Speed:
        amount: 0
        multiplier: 0
      Constitution:
        amount: 2
        multiplier: 5
    equipPlace: 1
  weapons:
  - name: test weapon
    Id: ffccc332-8415-4374-a680-d8f13616b5e0
    amount: 0
    worth: 0
    stackable: 0
    itemType: 1
    artPath: 
    spriteName: art/TestCharacter
    AddStats:
      Attack:
        amount: 0
        multiplier: 0
      Defence:
        amount: 0
        multiplier: 0
      Speed:
        amount: 0
        multiplier: 0
      Constitution:
        amount: 0
        multiplier: 0
    equipPlace: 5
--- !u!114 &5284818139237527334
MonoBehaviour:
  m_ObjectHideFlags: 0
  m_CorrespondingSourceObject: {fileID: 0}
  m_PrefabInstance: {fileID: 0}
  m_PrefabAsset: {fileID: 0}
  m_GameObject: {fileID: 5284818139237527333}
  m_Enabled: 1
  m_EditorHideFlags: 0
  m_Script: {fileID: 11500000, guid: 5367cf6bc5d3f4147b0425802320eee0, type: 3}
  m_Name: 
  m_EditorClassIdentifier: 
  forceLoad: 1
  rooms:
  - x: 0
    y: 0
    name: 1
    location: 1
    startLevel: 0
    endLevel: 100
    sideRoom: 0
    questRoom: 0
    bossRoom: 0
  - x: 0
    y: 0
    name: test
    location: BaseMap
    startLevel: 0
    endLevel: 100
    sideRoom: 0
    questRoom: 0
    bossRoom: 1
  - x: 0
    y: 0
    name: 2
    location: BaseMap
    startLevel: 0
    endLevel: 100
    sideRoom: 0
    questRoom: 0
    bossRoom: 0
  - x: 0
    y: 0
    name: 3
    location: BaseMap
    startLevel: 0
    endLevel: 100
    sideRoom: 0
    questRoom: 0
    bossRoom: 0
  - x: 0
    y: 0
    name: 4
    location: BaseMap
    startLevel: 0
    endLevel: 100
    sideRoom: 0
    questRoom: 0
    bossRoom: 0
--- !u!114 &9036371392436994460
MonoBehaviour:
  m_ObjectHideFlags: 0
  m_CorrespondingSourceObject: {fileID: 0}
  m_PrefabInstance: {fileID: 0}
  m_PrefabAsset: {fileID: 0}
  m_GameObject: {fileID: 5284818139237527333}
  m_Enabled: 1
  m_EditorHideFlags: 0
  m_Script: {fileID: 11500000, guid: 3cf860f3a951ca64f9074276b066e04a, type: 3}
  m_Name: 
  m_EditorClassIdentifier: 
  locations:
  - player/Mage
  - player/Ranger
  - player/Rogue
  - player/Support
  - player/Tank
  - player/Warrior
  - player/Cleric
  - Npc/Mob/Chimera
